<?xml version="1.0" encoding="UTF-8" standalone="no"?>
<!-- Created with Inkscape (http://www.inkscape.org/) -->

<svg
   width="1024mm"
   height="1024mm"
   viewBox="0 0 1024 1024"
   version="1.1"
   id="svg5"
   inkscape:version="1.3.2 (091e20ef0f, 2023-11-25)"
   sodipodi:docname="gitlab.svg"
   xmlns:inkscape="http://www.inkscape.org/namespaces/inkscape"
   xmlns:sodipodi="http://sodipodi.sourceforge.net/DTD/sodipodi-0.dtd"
   xmlns="http://www.w3.org/2000/svg"
   xmlns:svg="http://www.w3.org/2000/svg">
  <sodipodi:namedview
     id="namedview7"
     pagecolor="#ffffff"
     bordercolor="#999999"
     borderopacity="1"
     inkscape:pageshadow="0"
     inkscape:pageopacity="0"
     inkscape:pagecheckerboard="0"
     inkscape:document-units="px"
     showgrid="false"
     inkscape:zoom="0.17257035"
     inkscape:cx="2517.8137"
     inkscape:cy="2065.8242"
     inkscape:window-width="1440"
     inkscape:window-height="863"
     inkscape:window-x="0"
     inkscape:window-y="0"
     inkscape:window-maximized="1"
     inkscape:current-layer="layer1"
     inkscape:showpageshadow="2"
     inkscape:deskcolor="#d1d1d1" />
  <defs
     id="defs2">
    <inkscape:path-effect
       effect="mirror_symmetry"
       start_point="509.69406,136.22211"
       end_point="509.69406,907.43991"
       center_point="509.69406,521.83101"
       id="path-effect3764"
       is_visible="true"
       lpeversion="1.1"
       mode="free"
       discard_orig_path="false"
       fuse_paths="true"
       oposite_fuse="false"
       split_items="false"
       split_open="false" />
    <inkscape:path-effect
       effect="mirror_symmetry"
       start_point="509.69406,136.22211"
       end_point="509.69406,907.43991"
       center_point="509.69406,521.83101"
       id="path-effect3764-3"
       is_visible="true"
       lpeversion="1.1"
       mode="free"
       discard_orig_path="false"
       fuse_paths="true"
       oposite_fuse="false"
       split_items="false"
       split_open="false" />
    <inkscape:path-effect
       effect="mirror_symmetry"
       start_point="509.69406,136.22211"
       end_point="509.69406,907.43991"
       center_point="509.69406,521.83101"
       id="path-effect3764-3-7"
       is_visible="true"
       lpeversion="1.1"
       mode="free"
       discard_orig_path="false"
       fuse_paths="true"
       oposite_fuse="false"
       split_items="false"
       split_open="false" />
  </defs>
  <g
     inkscape:label="Layer 1"
     inkscape:groupmode="layer"
     id="layer1">
    <path
       style="opacity:1;fill:#000000;fill-opacity:0.63994861;stroke:#000000;stroke-width:0.264583px;stroke-linecap:butt;stroke-linejoin:miter;stroke-opacity:1"
       d="m 258.71875,136.27344 c -9.11932,0.55875 -17.85373,5.67272 -22.01758,16.33593 L 125.39063,437.66211 c 0,0 -20.76159,46.76799 -16.39649,97.25781 4.3651,50.48981 33.85681,104.70137 54.65625,120.52344 l 320.18164,243.56055 c 9.16344,6.9706 20.24805,7.56772 25.86133,7.33593 5.61328,0.23179 16.69984,-0.36533 25.86328,-7.33593 L 855.73633,655.44336 c 20.79944,-15.82207 50.29115,-70.03363 54.65625,-120.52344 4.36509,-50.48982 -16.39649,-97.25781 -16.39649,-97.25781 L 782.6875,152.60937 c -9.51736,-24.37305 -42.91756,-19.7559 -50.19531,1.99219 l -76.79492,229.48242 -146.00391,0.13868 -146.00195,-0.13868 -76.79493,-229.48242 c -4.09373,-12.2333 -16.45289,-19.04651 -28.17773,-18.32812 z"
       id="path869"
       sodipodi:nodetypes="scssscccss"
       inkscape:path-effect="#path-effect3764"
       inkscape:original-d="M 236.7002,152.61025 125.39147,437.66136 c 0,0 -20.76164,46.76897 -16.39654,97.25884 4.3651,50.48986 33.85694,104.70061 54.6564,120.5227 l 320.18106,243.56082 c 12.85763,9.78076 29.49831,7.01509 29.49831,7.01509 l 3.72013,-521.7895 -153.35996,-0.14441 -76.79401,-229.48364 c -7.27776,-21.74811 -40.67929,-26.36409 -50.19666,-1.99101 z"
       transform="matrix(1.2155207,0,0,1.2155207,-107.1604,-120.79166)" />
    <path
       style="opacity:1;fill:#000000;fill-opacity:0.45768493;stroke:#000000;stroke-width:0.264583px;stroke-linecap:butt;stroke-linejoin:miter;stroke-opacity:1"
       d="m 125.39063,437.66211 c 0,0 -20.76159,46.76799 -16.39649,97.25781 4.3651,50.48981 33.85681,104.70137 54.65625,120.52344 l 320.18164,243.56055 c 9.16344,6.9706 20.24805,7.56772 25.86133,7.33593 5.61328,0.23179 16.69984,-0.36533 25.86328,-7.33593 L 855.73633,655.44336 c 20.79944,-15.82207 50.29115,-70.03363 54.65625,-120.52344 4.36509,-50.48982 -16.39649,-97.25781 -16.39649,-97.25781 0,0 -71.44791,14.4267 -133.04101,60.83398 L 509.69336,687.80664 258.43359,498.49609 C 196.8405,452.08881 125.39062,437.66211 125.39063,437.66211 Z"
       id="path869-6"
       sodipodi:nodetypes="csssccsc"
       inkscape:path-effect="#path-effect3764-3"
       inkscape:original-d="m 125.39147,437.66136 c 0,0 -20.76164,46.76897 -16.39654,97.25884 4.3651,50.48986 33.85694,104.70061 54.6564,120.5227 l 320.18106,243.56082 c 12.85763,9.78076 29.49831,7.01509 29.49831,7.01509 L 513.6777,690.80865 258.43388,498.49537 C 196.84072,452.08804 125.39147,437.66136 125.39147,437.66136 Z"
       transform="matrix(1.2155207,0,0,1.2155207,-107.1604,-120.79166)" />
    <path
       style="opacity:1;fill:#000000;fill-opacity:0.99462694;stroke:#000000;stroke-width:0.264583px;stroke-linecap:butt;stroke-linejoin:miter;stroke-opacity:1"
       d="m 509.69336,687.80664 -153.87695,113.08789 128.01562,98.10938 c 9.14173,7.00602 20.24181,7.58697 25.86133,7.34375 5.61952,0.24322 16.72156,-0.33773 25.86328,-7.34375 l 128.01367,-98.10938 -153.875,-113.08789 -0.002,0.043 z"
       id="path869-6-5"
       sodipodi:nodetypes="csccc"
       inkscape:path-effect="#path-effect3764-3-7"
       inkscape:original-d="m 355.81693,800.89535 128.01546,98.10837 c 12.82244,9.82685 29.49831,7.01509 29.49831,7.01509 l -3.63734,-218.21217 z"
       transform="matrix(1.2155207,0,0,1.2155207,-107.1604,-120.79166)" />
  </g>
</svg>
