<?xml version="1.0" encoding="UTF-8" standalone="no"?>
<!-- Created with Inkscape (http://www.inkscape.org/) -->

<svg
   width="1024"
   height="512"
   viewBox="0 0 270.93333 135.46667"
   version="1.1"
   id="svg5"
   xml:space="preserve"
   inkscape:version="1.2.2 (b0a8486541, 2022-12-01)"
   sodipodi:docname="drawing.svg"
   xmlns:inkscape="http://www.inkscape.org/namespaces/inkscape"
   xmlns:sodipodi="http://sodipodi.sourceforge.net/DTD/sodipodi-0.dtd"
   xmlns="http://www.w3.org/2000/svg"
   xmlns:svg="http://www.w3.org/2000/svg"><sodipodi:namedview
     id="namedview7"
     pagecolor="#ffffff"
     bordercolor="#000000"
     borderopacity="0.25"
     inkscape:showpageshadow="2"
     inkscape:pageopacity="0.0"
     inkscape:pagecheckerboard="0"
     inkscape:deskcolor="#d1d1d1"
     inkscape:document-units="mm"
     showgrid="false"
     inkscape:zoom="1.2360733"
     inkscape:cx="549.72466"
     inkscape:cy="286.39077"
     inkscape:window-width="1920"
     inkscape:window-height="995"
     inkscape:window-x="0"
     inkscape:window-y="0"
     inkscape:window-maximized="1"
     inkscape:current-layer="layer1" /><defs
     id="defs2" /><g
     inkscape:label="Layer 1"
     inkscape:groupmode="layer"
     id="layer1"><path
       style="fill:none;stroke:#000000;stroke-width:3.96875;stroke-linecap:round;stroke-linejoin:round"
       d="M 113.45395,23.550915 186.05123,6.57412 v 86.921787 c -2.69613,7.601013 -8.23919,15.546093 -16.23344,15.947203 -6.34554,0.31838 -15.53873,-3.24657 -16.50971,-9.525456 -1.90899,-12.34456 14.39692,-18.758958 23.81793,-15.75425 V 31.455809 l -55.48734,15.862475 v 64.196106 c -3.85615,9.63074 -12.08986,16.73145 -21.30661,16.49404 -7.424786,-0.19124 -18.02814,-4.02637 -18.029174,-11.45362 -0.0018,-13.13118 18.164964,-20.793672 30.449714,-18.064763 z"
       id="path356"
       sodipodi:nodetypes="cccssccccsscc" /></g></svg>
